[scene],0
yard,0
residential_neighborhood,0
[shot],11.35
residential_neighborhood,11.35
yard,11.35
[scene],30.2
martial_arts_gym,30.2
boxing_ring,30.2
[shot],40.45
martial_arts_gym,40.45
boxing_ring,40.45
[shot],47.72
martial_arts_gym,47.72
boxing_ring,47.72
[shot],57.23
martial_arts_gym,57.23
boxing_ring,57.23
[shot],67.24
martial_arts_gym,67.24
boxing_ring,67.24
[shot],92.8
martial_arts_gym,92.8
boxing_ring,92.8
[shot],105.44
martial_arts_gym,105.44
boxing_ring,105.44
playground,105.44
[shot],114.02
boxing_ring,114.02
martial_arts_gym,114.02
[shot],127.07
martial_arts_gym,127.07
boxing_ring,127.07
playground,127.07
[shot],135.27
martial_arts_gym,135.27
[shot],147.32
martial_arts_gym,147.32
[shot],155.56
martial_arts_gym,155.56
[scene],169.41
swimming_pool/outdoor,169.41
[shot],183.19
swimming_pool/outdoor,183.19
[shot],189.73
swimming_pool/outdoor,189.73
[shot],197.64
swimming_pool/outdoor,197.64
[shot],201.54
swimming_pool/outdoor,201.54
[shot],221.36
swimming_pool/outdoor,221.36
[shot],227.67
swimming_pool/outdoor,227.67
[shot],231.3
swimming_pool/outdoor,231.3
[shot],269.11
swimming_pool/outdoor,269.11
[shot],281.05
swimming_pool/outdoor,281.05
[shot],293.67
swimming_pool/outdoor,293.67
[shot],310.55
swimming_pool/outdoor,310.55
[scene],324.23
forest_road,324.23
yard,324.23
[shot],343.78
yard,343.78
forest_road,343.78
[shot],361.8
yard,361.8
forest_road,361.8
[shot],365.67
forest_road,365.67
yard,365.67
[shot],461.07
yard,461.07
[shot],461.53
sky,461.53
[shot],486.02
yard,486.02
parking_lot,486.02
[shot],500.3
yard,500.3
parking_lot,500.3
sky,500.3
[shot],521.76
sky,521.76
forest_road,521.76
yard,536.5
parking_lot,537.816053
[shot],557.5
sky,557.5
yard,583.091023
parking_lot,583.091023
[shot],585.59
sky,585.59
forest_road,585.59
yard,591.423739
[shot],600.27
sky,600.27
yard,623
residential_neighborhood,626.697611
[shot],676.65
yard,676.65
parking_lot,676.65
[shot],688.49
yard,688.49
sky,688.49
[shot],718.82
sky,718.82
forest_road,718.82
yard,733.577864
[shot],734.91
yard,734.91
[shot],765.44
yard,765.44
[shot],776.91
sky,776.91
[shot],787.93
yard,787.93
residential_neighborhood,787.93
[shot],795.8
yard,795.8
[scene],825.06
residential_neighborhood,825.06
parking_lot,825.06
yard,825.06
[shot],846.82
yard,846.82
residential_neighborhood,846.82
parking_lot,846.82
[shot],853.69
yard,853.69
driveway,853.69
[shot],889.69
driveway,889.69
yard,889.69
[shot],913.62
yard,913.62
[shot],919.16
yard,919.16
residential_neighborhood,919.16
parking_lot,919.16
driveway,925
[shot],991.93
yard,991.93
parking_lot,996.532279
[shot],998.67
yard,998.67
parking_lot,998.67
[shot],1057.53
yard,1057.53
parking_lot,1057.53
[scene],1064.3
living_room,1064.3
[end],1071.9709
